…
``` r
# make confusion matrix.
#check if they are all equal. if so then let the null model win.



#subset these where the more compelx was equal to one of the other models and evaluate again.
full[(round(full$DICInfo) == round(full$DICSep)) | (round(full$DICRisk) == round(full$DICSep)) | (round(full$DICNoise) == round(full$DICSep)),]
```

    ## Source: local data frame [2,359 x 8]
    ## Groups: <by row>
    ## 
    ## # A tibble: 2,359 x 8
    ##       ID TrueModel DICInfo DICRisk DICNoise DICNull DICSep Winner
    ##    <int>     <dbl>   <dbl>   <dbl>    <dbl>   <dbl>  <dbl>  <dbl>
    ##  1     1         1    202.    237.     231.    237.   202.      1
    ##  2     2         1    202.    237.     231.    237.   202.      1
    ##  3     4         1    202.    237.     231.    237.   202.      1
    ##  4     5         1    202.    238.     232.    238.   202.      1
    ##  5     6         1    202.    238.     232.    238.   202.      1
    ##  6     8         1    202.    238.     232.    238.   202.      1
    ##  7    10         1    202.    237.     231.    237.   202.      1
    ##  8    12         1    202.    237.     231.    237.   202.      1
    ##  9    13         1    201.    237.     231.    237.   201.      1
    ## 10    14         1    202.    237.     231.    237.   202.      1
    ## # … with 2,349 more rows
…
