…
    ## [1] 8

``` r
# make confusion matrix.
#check if they are all equal. if so then let the null model win.



#subset these where the more compelx was equal to one of the other models and evaluate again.
full[(round(full$DICInfo) == round(full$DICSep)) | (round(full$DICRisk) == round(full$DICSep)) | (round(full$DICNoise) == round(full$DICSep)),]
```

    ## # A tibble: 1,700 x 8
    ##       ID TrueModel DICInfo DICRisk DICNoise DICNull DICSep Winner
    ##    <int>     <dbl>   <dbl>   <dbl>    <dbl>   <dbl>  <dbl>  <dbl>
    ##  1     3         1    217.    230.     231.    230.   230.      1
    ##  2    17         1    217.    230.     230.    230.   230.      1
    ##  3    20         1    217.    230.     231.    230.   230.      1
    ##  4    47         1    216.    230.     231.    230.   230.      1
    ##  5    52         1    217.    230.     231.    230.   230.      1
    ##  6    60         1    216.    230.     231.    230.   230.      1
    ##  7    61         1    216.    230.     231.    230.   230.      1
    ##  8    62         1    217.    230.     231.    230.   230.      1
    ##  9    83         1    217.    230.     231.    230.   230.      1
    ## 10    99         1    217.    230.     231.    230.   230.      1
    ## # ... with 1,690 more rows
…
